
Impossible de se logger après avoir effectuer un premier log, a revoir.

—————————————————————————————————————————————————————————————————————————————————————

07-06 20:18:06.234 29861-29861/com.example.theolambert.bugtrace E/AndroidRuntime: FATAL EXCEPTION: main
                                                                                  Process: com.example.theolambert.bugtrace, PID: 29861
                                                                                  java.lang.IllegalStateException: Could not execute method for android:onClick
                                                                                      at android.support.v7.app.AppCompatViewInflater$DeclaredOnClickListener.onClick(AppCompatViewInflater.java:293)
                                                                                      at android.view.View.performClick(View.java:4780)
                                                                                      at android.view.View$PerformClick.run(View.java:19866)
                                                                                      at android.os.Handler.handleCallback(Handler.java:739)
                                                                                      at android.os.Handler.dispatchMessage(Handler.java:95)
                                                                                      at android.os.Looper.loop(Looper.java:135)
                                                                                      at android.app.ActivityThread.main(ActivityThread.java:5254)
                                                                                      at java.lang.reflect.Method.invoke(Native Method)
                                                                                      at java.lang.reflect.Method.invoke(Method.java:372)
                                                                                      at com.android.internal.os.ZygoteInit$MethodAndArgsCaller.run(ZygoteInit.java:903)
                                                                                      at com.android.internal.os.ZygoteInit.main(ZygoteInit.java:698)
                                                                                   Caused by: java.lang.reflect.InvocationTargetException
                                                                                      at java.lang.reflect.Method.invoke(Native Method)
                                                                                      at java.lang.reflect.Method.invoke(Method.java:372)
                                                                                      at android.support.v7.app.AppCompatViewInflater$DeclaredOnClickListener.onClick(AppCompatViewInflater.java:288)
                                                                                      at android.view.View.performClick(View.java:4780) 
                                                                                      at android.view.View$PerformClick.run(View.java:19866) 
                                                                                      at android.os.Handler.handleCallback(Handler.java:739) 
                                                                                      at android.os.Handler.dispatchMessage(Handler.java:95) 
                                                                                      at android.os.Looper.loop(Looper.java:135) 
                                                                                      at android.app.ActivityThread.main(ActivityThread.java:5254) 
                                                                                      at java.lang.reflect.Method.invoke(Native Method) 
                                                                                      at java.lang.reflect.Method.invoke(Method.java:372) 
                                                                                      at com.android.internal.os.ZygoteInit$MethodAndArgsCaller.run(ZygoteInit.java:903) 
                                                                                      at com.android.internal.os.ZygoteInit.main(ZygoteInit.java:698) 
                                                                                   Caused by: java.lang.IllegalStateException: Cannot execute task: the task has already been executed (a task can be executed only once)
                                                                                      at android.os.AsyncTask.executeOnExecutor(AsyncTask.java:583)
                                                                                      at android.os.AsyncTask.execute(AsyncTask.java:539)
                                                                                      at com.example.theolambert.bugtrace.Login.onClickConnect(Login.java:36)
                                                                                      at java.lang.reflect.Method.invoke(Native Method) 
                                                                                      at java.lang.reflect.Method.invoke(Method.java:372) 
                                                                                      at android.support.v7.app.AppCompatViewInflater$DeclaredOnClickListener.onClick(AppCompatViewInflater.java:288) 
                                                                                      at android.view.View.performClick(View.java:4780) 
                                                                                      at android.view.View$PerformClick.run(View.java:19866) 
                                                                                      at android.os.Handler.handleCallback(Handler.java:739) 
                                                                                      at android.os.Handler.dispatchMessage(Handler.java:95) 
                                                                                      at android.os.Looper.loop(Looper.java:135) 
                                                                                      at android.app.ActivityThread.main(ActivityThread.java:5254) 
                                                                                      at java.lang.reflect.Method.invoke(Native Method) 
                                                                                      at java.lang.reflect.Method.invoke(Method.java:372) 
                                                                                      at com.android.internal.os.ZygoteInit$MethodAndArgsCaller.run(ZygoteInit.java:903) 
                                                                                      at com.android.internal.os.ZygoteInit.main(ZygoteInit.java:698)

EDIT : Probleme avec le setting graddle, obligé de cloner le projet a partit de git, grosse erreur de ma part lors du dernier commit /!\/!\
———————————————————————————————————————————————————————————————————————————————————
